…
Then, I will play around with these two data frame by using various joint functions.

### Left Join
This will save all data in first data fram (gapminder), and add new column in second data frame to it. Therefore, at this time, continents, besides Asia, will have a N/A in new column.


```r
left_join(gapminder,second_data_frame, by = c("continent","year"))
```

```
## # A tibble: 1,704 x 7
##        country continent  year lifeExp      pop gdpPercap  mean_pop
##         <fctr>    <fctr> <int>   <dbl>    <int>     <dbl>     <dbl>
##  1 Afghanistan      Asia  1952  28.801  8425333  779.4453  42283556
##  2 Afghanistan      Asia  1957  30.332  9240934  820.8530  47356988
##  3 Afghanistan      Asia  1962  31.997 10267083  853.1007  51404763
##  4 Afghanistan      Asia  1967  34.020 11537966  836.1971  57747361
##  5 Afghanistan      Asia  1972  36.088 13079460  739.9811  65180977
##  6 Afghanistan      Asia  1977  38.438 14880372  786.1134  72257987
##  7 Afghanistan      Asia  1982  39.854 12881816  978.0114  79095018
##  8 Afghanistan      Asia  1987  40.822 13867957  852.3959  87006690
##  9 Afghanistan      Asia  1992  41.674 16317921  649.3414  94948248
## 10 Afghanistan      Asia  1997  41.763 22227415  635.3414 102523803
## # ... with 1,694 more rows
```
…
### Full Join

It retains all data in both data frame.

```r
full_join(gapminder,second_data_frame, by = c("continent","year"))
```

```
## # A tibble: 1,704 x 7
##        country continent  year lifeExp      pop gdpPercap  mean_pop
##         <fctr>    <fctr> <int>   <dbl>    <int>     <dbl>     <dbl>
##  1 Afghanistan      Asia  1952  28.801  8425333  779.4453  42283556
##  2 Afghanistan      Asia  1957  30.332  9240934  820.8530  47356988
##  3 Afghanistan      Asia  1962  31.997 10267083  853.1007  51404763
##  4 Afghanistan      Asia  1967  34.020 11537966  836.1971  57747361
##  5 Afghanistan      Asia  1972  36.088 13079460  739.9811  65180977
##  6 Afghanistan      Asia  1977  38.438 14880372  786.1134  72257987
##  7 Afghanistan      Asia  1982  39.854 12881816  978.0114  79095018
##  8 Afghanistan      Asia  1987  40.822 13867957  852.3959  87006690
##  9 Afghanistan      Asia  1992  41.674 16317921  649.3414  94948248
## 10 Afghanistan      Asia  1997  41.763 22227415  635.3414 102523803
## # ... with 1,694 more rows
```
### Inner Join
It retains the data that only present in both data frame and add new columns to gapminder.

```r
inner_join(gapminder,second_data_frame, by = c("continent","year"))
```

```
## # A tibble: 396 x 7
##        country continent  year lifeExp      pop gdpPercap  mean_pop
##         <fctr>    <fctr> <int>   <dbl>    <int>     <dbl>     <dbl>
##  1 Afghanistan      Asia  1952  28.801  8425333  779.4453  42283556
##  2 Afghanistan      Asia  1957  30.332  9240934  820.8530  47356988
##  3 Afghanistan      Asia  1962  31.997 10267083  853.1007  51404763
##  4 Afghanistan      Asia  1967  34.020 11537966  836.1971  57747361
##  5 Afghanistan      Asia  1972  36.088 13079460  739.9811  65180977
##  6 Afghanistan      Asia  1977  38.438 14880372  786.1134  72257987
##  7 Afghanistan      Asia  1982  39.854 12881816  978.0114  79095018
##  8 Afghanistan      Asia  1987  40.822 13867957  852.3959  87006690
##  9 Afghanistan      Asia  1992  41.674 16317921  649.3414  94948248
## 10 Afghanistan      Asia  1997  41.763 22227415  635.3414 102523803
## # ... with 386 more rows
```


### Semi Join
It is used to filter out the data that does not match with the one in second data frame, but does not add new columns to gapminder.


```r
semi_join(gapminder,second_data_frame, by = c("continent","year"))
```

```
## # A tibble: 396 x 6
##        country continent  year lifeExp      pop gdpPercap
##         <fctr>    <fctr> <int>   <dbl>    <int>     <dbl>
##  1 Afghanistan      Asia  1952  28.801  8425333  779.4453
##  2 Afghanistan      Asia  1957  30.332  9240934  820.8530
##  3 Afghanistan      Asia  1962  31.997 10267083  853.1007
##  4 Afghanistan      Asia  1967  34.020 11537966  836.1971
##  5 Afghanistan      Asia  1972  36.088 13079460  739.9811
##  6 Afghanistan      Asia  1977  38.438 14880372  786.1134
##  7 Afghanistan      Asia  1982  39.854 12881816  978.0114
##  8 Afghanistan      Asia  1987  40.822 13867957  852.3959
##  9 Afghanistan      Asia  1992  41.674 16317921  649.3414
## 10 Afghanistan      Asia  1997  41.763 22227415  635.3414
## # ... with 386 more rows
```

### Anti Join

This is the inverse type of semi join. It only keep the data that is not present in second data frame. Therefore, all Asia data are removed.

```r
anti_join(gapminder,second_data_frame, by = c("continent","year"))
```

```
## # A tibble: 1,308 x 6
##    country continent  year lifeExp     pop gdpPercap
##     <fctr>    <fctr> <int>   <dbl>   <int>     <dbl>
##  1 Albania    Europe  1952  55.230 1282697  1601.056
##  2 Albania    Europe  1957  59.280 1476505  1942.284
##  3 Albania    Europe  1962  64.820 1728137  2312.889
##  4 Albania    Europe  1967  66.220 1984060  2760.197
##  5 Albania    Europe  1972  67.690 2263554  3313.422
##  6 Albania    Europe  1977  68.930 2509048  3533.004
##  7 Albania    Europe  1982  70.420 2780097  3630.881
##  8 Albania    Europe  1987  72.000 3075321  3738.933
##  9 Albania    Europe  1992  71.581 3326498  2497.438
## 10 Albania    Europe  1997  72.950 3428038  3193.055
## # ... with 1,298 more rows
```
