…
```r
saveRDS(sfile,"~/Desktop/STAT545-hw-Guo-Maria/hw05/sfile.rds")
readRDS("~/Desktop/STAT545-hw-Guo-Maria/hw05/sfile.rds")
```

```
## # A tibble: 39 x 2
##                                    release max_duration
##                                      <chr>        <dbl>
##  1                            Act Your Age    1535.9473
##  2                      Banned In New York     849.4755
##  3                            Bitter River    1500.2379
##  4                             Black Gipsy    1539.3171
##  5                       Catch ThirtyThree     802.6902
##  6             Chuck Mangione: Finest Hour     848.2738
##  7                              Club Zebra     882.4420
##  8                      Diadem Of 12 Stars     838.4257
##  9 El Prodigioso - Los 50 Años Del Maestro     889.2861
## 10                            Empire Prism    1770.2657
## # ... with 29 more rows
```



```r
dput(sfile,"~/Desktop/STAT545-hw-Guo-Maria/hw05/sfile.txt")
dget("~/Desktop/STAT545-hw-Guo-Maria/hw05/sfile.txt")
```

```
## # A tibble: 39 x 2
##                                    release max_duration
##                                      <chr>        <dbl>
##  1                            Act Your Age    1535.9473
##  2                      Banned In New York     849.4755
##  3                            Bitter River    1500.2379
##  4                             Black Gipsy    1539.3171
##  5                       Catch ThirtyThree     802.6902
##  6             Chuck Mangione: Finest Hour     848.2738
##  7                              Club Zebra     882.4420
##  8                      Diadem Of 12 Stars     838.4257
##  9 El Prodigioso - Los 50 Años Del Maestro     889.2861
## 10                            Empire Prism    1770.2657
## # ... with 29 more rows
```
…
